frec,fase
5000.0 -11.047120656373684
5770.0 -11.149774534434734
6540.0 -11.258055301864935
7310.0 -11.526084994488642
8080.0 -11.77182591076574
8850.0 -11.97783646269164
9620.0 -12.13548918095244
10390.0 -12.25491346725496
11160.0 -12.472056270318037
11930.0 -12.636851495848127
12700.0 -12.799847787842257
13470.0 -12.940301288548671
14240.0 -13.048339596949036
15010.0 -13.210599259891376
15780.0 -13.351827849309087
16550.0 -13.490880650052206
17320.0 -13.607050282191388
18090.0 -13.705609448174261
18860.0 -13.852950139757057
19630.0 -13.968123330078223
20400.0 -14.103798311080853
21170.0 -14.20888976485647
21940.0 -14.271109982919407
22710.0 -14.38736955139131
23480.0 -14.503429310590318
24250.0 -14.630225624359278
25020.0 -14.71087322180224
25790.0 -14.7745427066239
26560.0 -14.893942662486909
27330.0 -14.977109285291883
28100.0 -15.066275349551319
28870.0 -15.148940636910119
29640.0 -15.226684532126
30410.0 -15.306744946718021
31180.0 -15.392060725813135
31950.0 -15.466441992084839
32720.0 -15.534306217033247
33490.0 -15.590983644568665
34260.0 -15.674239601733289
35030.0 -15.728849098513116
35800.0 -15.807424847416497
36570.0 -15.861661306722098
37340.0 -15.926722263457911
38110.0 -15.975273350677872
38880.0 -16.032884157582473
39650.0 -16.086360204014557
40420.0 -16.135534258416364
41190.0 -16.174238673655704
41960.0 -16.216750216783126
42730.0 -16.26041989105286
43500.0 -16.31132871009346
44270.0 -16.346377585129222
45040.0 -16.375896306606585
45810.0 -16.435609097623196
46580.0 -16.465807204364268
47350.0 -16.501405286790327
48120.0 -16.51906241935745
48890.0 -16.5495301296561
49660.0 -16.57280285732199
50430.0 -16.607209355663183
51200.0 -16.622294498823333
51970.0 -16.64413395096293
52740.0 -16.661307594434746
53510.0 -16.684220257778648
54280.0 -16.69040377372228
55050.0 -16.70427169153421
55820.0 -16.70876198193983
56590.0 -16.705782632842133
57360.0 -16.707430083316932
58130.0 -16.727219860718478
58900.0 -16.731805779495993
59670.0 -16.705066765294628
60440.0 -16.6844060740693
61210.0 -16.709023881278345
61980.0 -16.723497429984878
62750.0 -16.648943889581428
63520.0 -16.6992701812792
64290.0 -16.652634174048412
65060.0 -16.648924413002717
65830.0 -16.6575991215365
66600.0 -16.621520614798417
67370.0 -16.592461003986703
68140.0 -16.579324589336746
68910.0 -16.55152670174631
69680.0 -16.51116993712718
70450.0 -16.482323190117636
71220.0 -16.424090499623247
71990.0 -16.396664642234068
72760.0 -1.56614252087088
73530.0 -16.33086396726091
74300.0 -16.295293177422167
75070.0 -16.2299109283633
75840.0 -16.203884927355553
76610.0 -16.143023312962004
77380.0 -16.10961093873992
78150.0 -16.037347999775953
78920.0 -15.983710024650767
79690.0 -15.935830803967546
80460.0 -15.882743882261032
81230.0 -15.819422007401437
82000.0 -15.781967086776408
82770.0 -15.712114473595662
83540.0 -15.651050498490736
84310.0 -15.55456057869646
85080.0 -15.532703919621852
85850.0 -15.474249367656393
86620.0 -15.40468531133471
87390.0 -15.29513796394553
88160.0 -15.227086593537063
88930.0 -15.15707951630151
89700.0 -15.084345090265419
90470.0 -14.978317743906855
91240.0 -14.926598014276724
92010.0 -14.818919950319176
92780.0 -14.756023967717871
93550.0 -14.649570522767425
94320.0 -14.553247716046688
95090.0 -14.479030463873505
95860.0 -14.39494620493371
96630.0 -14.300705176566435
97400.0 -14.21800066526597
98170.0 -14.105935196008879
98940.0 -14.004242707629349
99710.0 -13.952604908318671
100480.0 -13.837443430262338
101250.0 -13.732937686135672
102020.0 -13.643844165533901
102790.0 -13.539109644076488
103560.0 -13.442915953743178
104330.0 -13.329784483381207
105100.0 -13.224297232829795
105870.0 -13.105165718113645
106640.0 -13.014242438486875
107410.0 -12.902573664581375
108180.0 -12.785172921364346
108950.0 -12.676888206968169
109720.0 -12.577255668416441
110490.0 -12.463445034654134
111260.0 -12.350634793019955
112030.0 -12.216067908267059
112800.0 -12.10798033625348
113570.0 -11.987339967844513
114340.0 -11.873189298493655
115110.0 -11.767377598096868
115880.0 -11.634719771228813
116650.0 -11.51163163104124
117420.0 -11.395362812772621
