frec,fase
5000.0,-9.858085185883303
5770.0,-9.922477547617092
6540.0,-9.932275637678355
7310.0,-9.974820403337258
8080.0,-10.006656381715288
8850.0,-10.072312453170023
9620.0,-10.082972184956084
10390.0,-10.128743978454645
11160.0,-10.113786182793186
11930.0,-10.179917136900386
12700.0,-10.178703859421637
13470.0,-10.201544939770216
14240.0,-10.239112634717983
15010.0,-10.294288434213508
15780.0,-10.269834782292696
16550.0,-10.317914973251646
17320.0,-10.306614714028948
18090.0,-10.358609677955746
18860.0,-10.3821277293084
19630.0,-10.364814040493167
20400.0,-10.432246631172408
21170.0,-10.41507242696293
21940.0,-10.406380177668206
22710.0,-10.415025086646791
23480.0,-10.424489387921957
24250.0,-10.43483546195726
25020.0,-10.436127497769219
25790.0,-10.466667845968205
26560.0,-10.46435027452726
27330.0,-10.47764481573772
28100.0,-10.46924596813855
28870.0,-10.43591822232305
29640.0,-10.525657448567088
30410.0,-10.419156130194722
31180.0,-10.50296420611701
31950.0,-10.445639181866332
32720.0,-10.468975005084166
33490.0,-10.474173942626415
34260.0,-10.512543487092826
35030.0,-10.471821446788107
35800.0,-10.435653132298922
36570.0,-10.483779041471342
37340.0,-10.49538411729075
38110.0,-10.426943333694677
38880.0,-10.469102529776302
39650.0,-10.478167692063046
40420.0,-10.467641955680689
41190.0,-10.433963149610886
41960.0,-10.40745854099768
42730.0,-10.366167813743255
43500.0,-10.396565372965483
44270.0,-10.364409173416952
45040.0,-10.385187392317397
45810.0,-10.398642371435818
46580.0,-10.333645315998217
47350.0,-10.326815255595475
48120.0,-10.270182780294324
48890.0,-10.300733619947847
49660.0,-10.294087246016197
50430.0,-10.2528715207932
51200.0,-10.287508377389065
51970.0,-10.251226546391457
52740.0,-10.205504353580395
53510.0,-10.235346888042708
54280.0,-10.217012545179438
55050.0,-10.201977767786751
55820.0,-10.177235842755591
56590.0,-10.193923585791229
57360.0,-10.193457462531763
58130.0,-10.135346551639028
58900.0,-10.084780730636046
59670.0,-10.118324591943345
60440.0,-10.058146920066605
61210.0,-10.071226712114823
61980.0,-10.08192890371114
62750.0,-10.013769065824128
63520.0,-10.010872324751162
64290.0,-10.003244343057284
65060.0,-9.98476372852505
65830.0,-9.981338505402196
66600.0,-9.904950446051263
67370.0,-9.900659105245596
68140.0,-9.883786249369168
68910.0,-9.845292580725342
69680.0,-9.865971636196372
70450.0,-9.851249253516027
71220.0,-9.792324947393784
71990.0,-9.784812567903929
72760.0,-9.762184535467648
73530.0,-9.739058809672658
74300.0,-9.756573086221236
75070.0,-9.689775244197117
75840.0,-9.6826744136175
76610.0,-9.663634917543389
77380.0,-9.607986712558825
78150.0,-9.61886611847575
78920.0,-9.593480929370305
79690.0,-9.562419827980472
80460.0,-9.56308047171456
81230.0,-9.50507762328234
82000.0,-9.476252819666001
82770.0,-9.457618320654605
83540.0,-9.442282342576675
84310.0,-9.413346697244725
85080.0,-9.388661777416726
85850.0,-9.381212038050055
86620.0,-9.350880857504913
87390.0,-9.345575183828164
88160.0,-9.293631861920236
88930.0,-9.29139745386736
89700.0,-9.240008783181278
90470.0,-9.236700897867259
91240.0,-9.192586473692872
92010.0,-9.192299338648622
92780.0,-9.170516790866937
93550.0,-9.130700130736507
94320.0,-9.102474990845234
95090.0,-9.066474081110035
95860.0,-9.038153552177146
96630.0,-9.02611430616972
97400.0,-8.995763706681387
98170.0,-8.967326480833982
98940.0,-8.959610377865275
99710.0,-8.912083942910785
100480.0,-8.912441513370592
101250.0,-8.869771747223547
102020.0,-8.846608906982476
102790.0,-8.834541333625799
103560.0,-8.79175179205027
104330.0,-8.768782634575956
105100.0,-8.742440807799438
105870.0,-8.719819409962344
106640.0,-8.69673634187805
107410.0,-8.67214748689995
108180.0,-8.643168503233609
108950.0,-8.628291515214167
109720.0,-8.593664339161581
110490.0,-8.578364625393302
111260.0,-8.544866149068058
112030.0,-8.506861914330974
112800.0,-8.512053708301721
113570.0,-8.466105952806375
114340.0,-8.462776191329544
115110.0,-8.42181654277903
115880.0,-8.397485564003153
116650.0,-8.36197983066123
117420.0,-8.39526304055235
