frec,fase
5000.0,-9.160109634206115
5770.0,-9.173731678407709
6540.0,-9.2361404222577
7310.0,-9.33001844780735
8080.0,-9.519908667558271
8850.0,-9.573187781694099
9620.0,-9.556894428073054
10390.0,-9.675245756367035
11160.0,-9.831839121681371
11930.0,-9.915356915164045
12700.0,-9.963027095825831
13470.0,-10.004646125942271
14240.0,-9.990920903167627
15010.0,-10.202870803325704
15780.0,-10.270346808387893
16550.0,-10.447163567961633
17320.0,-10.341492303085806
18090.0,-10.318623860957297
18860.0,-10.523959305117112
19630.0,-10.561156980893045
20400.0,-10.709217716750874
21170.0,-10.700731223552912
21940.0,-10.728821024028084
22710.0,-10.587019382234864
23480.0,-10.915509849837669
24250.0,-10.85132687399356
25020.0,-10.963949078993853
25790.0,-10.90874331698554
26560.0,-10.954725161578267
27330.0,-10.979745631758762
28100.0,-11.107656830327882
28870.0,-11.187673561113973
29640.0,-11.091172812759211
30410.0,-11.10483795853811
31180.0,-11.018523179540031
31950.0,-11.24558483779839
32720.0,-11.261455161833046
33490.0,-11.34618556815665
34260.0,-11.207177360423053
35030.0,-11.284753519431273
35800.0,-11.261380014993312
36570.0,-11.346978729142503
37340.0,-11.451229187544753
38110.0,-11.312563134819001
38880.0,-11.311351488279856
39650.0,-11.392080581201489
40420.0,-11.454735638193286
41190.0,-11.475057495805725
41960.0,-11.43122784865747
42730.0,-11.408437959960468
43500.0,-11.482981483348823
44270.0,-11.516372015803537
45040.0,-11.471906133756189
45810.0,-11.374509760448467
46580.0,-11.490479868332187
47350.0,-11.554175504632193
48120.0,-11.483557754448096
48890.0,-11.37318346823547
49660.0,-11.493642201085027
50430.0,-11.559884682381183
51200.0,-11.437174217170883
51970.0,-11.355939509815192
52740.0,-11.497201156349576
53510.0,-11.559457692543361
54280.0,-11.382198356798712
55050.0,-11.32342694231163
55820.0,-11.461607073669057
56590.0,-11.539002337067206
57360.0,-11.360114555117683
58130.0,-11.276525526599935
58900.0,-11.44826802104026
59670.0,-11.482167523211144
60440.0,-11.313316498867259
61210.0,-11.215422197026212
61980.0,-11.403293053048845
62750.0,-11.413551583231973
63520.0,-11.334693614665673
64290.0,-11.2719578925959
65060.0,-11.119427339872438
65830.0,-11.275468966945747
66600.0,-11.295393120718138
67370.0,-11.317061441028374
68140.0,-11.16365379103891
68910.0,-11.16350881559499
69680.0,-11.121892884348814
70450.0,-11.167253974375807
71220.0,-11.207054880097791
71990.0,-11.078158886457135
72760.0,-11.100519900742409
73530.0,-10.933842488291228
74300.0,-11.022313365366061
75070.0,-11.055592180038499
75840.0,-11.054775779151868
76610.0,-10.91961304287824
77380.0,-10.862890156376974
78150.0,-10.875081130274323
78920.0,-10.869584422070979
79690.0,-10.918257739079186
80460.0,-10.740998744860853
81230.0,-10.772956536321338
82000.0,-10.662108959013397
82770.0,-10.708644002766189
83540.0,-10.727445877979415
84310.0,-10.673566898761639
85080.0,-10.551795794311872
85850.0,-10.468745082219566
86620.0,-10.564234966990131
87390.0,-10.545701368004202
88160.0,-10.545774113285214
88930.0,-10.412323962269005
89700.0,-10.344304108079218
90470.0,-10.349819434560928
91240.0,-10.272533105350258
92010.0,-10.195084113171623
92780.0,-10.20509743086429
93550.0,-10.19170858649797
94320.0,-10.185099517540463
95090.0,-10.15819253554025
95860.0,-10.14376964571738
96630.0,-10.103680236290714
97400.0,-9.946718507094658
98170.0,-9.979547170324084
98940.0,-9.841277100416168
99710.0,-9.858652595999244
100480.0,-9.82268948946611
101250.0,-9.841314800042777
102020.0,-9.815049036630146
102790.0,-9.680405705158979
103560.0,-9.592453977440748
104330.0,-9.620299658663997
105100.0,-9.627102484044979
105870.0,-9.583392811979111
106640.0,-9.463542459706296
107410.0,-9.44412238161372
108180.0,-9.36585937742578
108950.0,-9.370069720992928
109720.0,-9.414010030308079
110490.0,-9.252412939100422
111260.0,-9.221737423437933
112030.0,-9.094189462414262
112800.0,-9.075051470760762
113570.0,-9.088562582450095
114340.0,-9.07869646900752
115110.0,-8.992210178616354
115880.0,-8.936480905096028
116650.0,-8.840416061274194
117420.0,-8.85719207096843
